[
    {"category": "month", "en": "January", "ja": "1月:sunrise:"},
    {"category": "month", "en": "February", "ja": "2月:japanese_ogre:"},
    {"category": "month", "en": "March", "ja": "3月:dango:"},
    {"category": "month", "en": "April", "ja": "4月:cherry_blossom:"},
    {"category": "month", "en": "May", "ja": "5月:evergreen_tree:"},
    {"category": "month", "en": "June", "ja": "6月:umbrella:"},
    {"category": "month", "en": "July", "ja": "7月:tanabata_tree:"},
    {"category": "month", "en": "August", "ja": "8月:sunflower:"},
    {"category": "month", "en": "September", "ja": "9月:full_moon:"},
    {"category": "month", "en": "October", "ja": "10月:jack_o_lantern:"},
    {"category": "month", "en": "November", "ja": "11月:fallen_leaf:"},
    {"category": "month", "en": "December", "ja": "12月:santa:"}
]
